<?xml version="1.0" encoding="UTF-8"?>
<svg width="120px" height="33px" viewBox="0 0 105 33" version="1.1" xmlns="http://www.w3.org/2000/svg" xmlns:xlink="http://www.w3.org/1999/xlink">
    <!-- Generator: Sketch 41.2 (35397) - http://www.bohemiancoding.com/sketch -->
    <title>Logo</title>
    <desc>Created with Sketch.</desc>
    <defs></defs>
    <g id="Templates" stroke="none" stroke-width="1" fill="none" fill-rule="evenodd">
        <g id="iPad-Landscape-Full-Map-Start" transform="translate(-19.000000, -21.000000)" fill="#007EFF">
            <g id="header">
                <g id="Logo" transform="translate(19.000000, 21.000000)">
                    <path d="M44.5617318,28.3102817 C42.239162,28.6728169 39.4699441,23.0535211 38.4873184,15.8934507 C38.4873184,15.8028169 38.4873184,15.7121831 38.3979888,15.5309155 C37.5940223,9.2771831 38.2193296,2.8421831 40.7205587,2.20774648 C41.8818436,1.93584507 43.0431285,2.9328169 44.1150838,4.65485915 L45.8123464,4.65485915 C44.2044134,1.66394366 42.239162,-0.0580985916 40.4525698,0.395070423 C40.3632402,0.395070423 39.9165922,0.576338028 39.4699441,0.757605634 L39.3806145,0.757605634 L35.8074302,2.38901408 C35.8074302,2.38901408 6.59664804,12.1774648 2.84480447,13.9901408 C2.57681564,13.8088732 2.30882682,13.8088732 2.04083799,13.8088732 C0.790223464,13.9901408 0.0755865922,16.5278873 0.432905028,19.3375352 C0.879553073,22.2378169 2.21949721,24.4130282 3.55944134,24.2317606 C3.73810056,24.2317606 4.00608939,24.1411268 4.09541899,23.9598592 C4.09541899,24.050493 4.45273743,24.2317606 6.77530726,24.5942958 C6.50731844,28.3102817 9.09787709,31.6637324 12.9390503,32.298169 C16.6908939,32.9326056 20.532067,30.3042254 21.2467039,26.8601408 C27.7677654,27.8571127 44.4724022,29.6697887 42.6858101,29.3978873 C43.9364246,29.5791549 44.7403911,29.6697887 44.7403911,29.6697887 C46.6163128,29.3978873 47.956257,27.2226761 48.6708939,23.9598592 L47.1522905,23.9598592 C46.6163128,26.5882394 45.7230168,28.1290141 44.5617318,28.3102817 L44.5617318,28.3102817 Z M4.1847486,24.1411268 L4.1847486,24.1411268 L4.1847486,24.1411268 L4.1847486,24.1411268 Z M13.3856983,30.1229577 C10.9737989,29.7604225 9.1872067,27.5852113 9.27653631,25.2287324 C12.313743,25.6819014 15.7082682,26.2257042 18.9241341,26.769507 C18.1201676,29.0353521 15.7975978,30.485493 13.3856983,30.1229577 L13.3856983,30.1229577 Z" id="Fill-6"></path>
                    <text id="Gvult" font-family="Arial" font-size="19px" font-weight="900" letter-spacing="-0.300000012">
                        <tspan x="41" y="21">GVULT</tspan>
                    </text>
                </g>
            </g>
        </g>
    </g>
</svg>