<svg xmlns="http://www.w3.org/2000/svg" width="64" height="69" viewBox="0 0 64 69">
    <g fill="none" fill-rule="evenodd" stroke="#222829" stroke-width="2">
        <path d="M32 39V9M32 63V43M36 5a4 4 0 1 1-8 0 4 4 0 0 1 8 0zM32 53c2 1 5 2.238 5 5a5 5 0 0 1-5 5 5 5 0 0 1-4-8M32 53c-2-1-7-3-7-7 0-2.455 2.016-3.809 4-4.981M36 51c2-1 3-2.706 3-5 0-3.866-5-6-7-7M35 25c2 0 5 2 5 6 0 4.419-6 7-8 8-2-1-8-3.581-8-8 0-4 3-6 5-6"/>
        <path stroke-linejoin="round" d="M29 21h-4C11 21 3 16 1 10c14 0 14-5 19-5 2 0 4 1.791 4 4v3c0 1.656 1.344 3 3 3h2"/>
        <path d="M22 21v-4M18 21v-5M14 20v-5M10 18v-4"/>
        <path stroke-linejoin="round" d="M35 21h4c14 0 22-5 24-11-14 0-14-5-19-5-2 0-4 1.791-4 4v3c0 1.656-1.344 3-3 3h-2"/>
        <path d="M42 21v-4M46 21v-5M50 20v-5M54 18v-4"/>
        <path stroke-linejoin="round" d="M58 20c3.207 4.881 5 10.723 5 17 0 17.121-13.879 31-31 31C14.879 68 1 54.121 1 37c0-6.278 1.792-12.118 5-17"/>
    </g>
</svg>
