<svg xmlns="http://www.w3.org/2000/svg" width="64" height="64" viewBox="0 0 64 64">
    <g fill="none" fill-rule="evenodd" stroke="#222829" stroke-width="2">
        <path d="M30 1v13M30 34c4 6 14-1 14-14 0-4-2-7-4-8-5.215-2.607-8 2-10 2s-4.785-4.607-10-2c-2 1-4 4-4 8 0 13 10 20 14 14zM36.012 7.012c-1.951 1.953-6 2-6 2s.048-4.048 2-6c1.953-1.953 6-2 6-2s-.047 4.048-2 6zM32 20v6M28 20v6M54 47a5 5 0 0 1-5-5 5 5 0 0 1 5-5H12a5 5 0 0 0-5 5 5 5 0 0 0 5 5h42zM5 53h52v-6H5zM1 63h62V53H1zM13 47v6M15 53v10M17 47v6M21 47v6M58 58h-2M54 58h-2M50 58h-2"/>
        <path d="M9 58a1 1 0 1 1-2 0 1 1 0 1 1 2 0z"/>
    </g>
</svg>
