<svg xmlns="http://www.w3.org/2000/svg" width="60" height="64" viewBox="0 0 60 64">
    <g fill="none" fill-rule="evenodd" stroke="#fff" stroke-width="1">
        <path stroke-linejoin="round" d="M35 50V35M35 35L11 11h48zM33 27L59 1"/>
        <path d="M24 63c6.075 0 11-6.925 11-13 0 6.075 4.925 13 11 13H24z"/>
        <path stroke-linejoin="round" d="M11 18v3C5.478 21 1 16.523 1 11S5.478 1 11 1s10 4.477 10 10a9.969 9.969 0 0 1-2.859 7M18 18h34"/>
        <path d="M60 63H48M0 48h32M22 63H0M38 48h22"/>
    </g>
</svg>
